-------------------------------------------------------------------------------
Test set: englishhub.EnglishHubServer.UserDAOTest
-------------------------------------------------------------------------------
Tests run: 5, Failures: 0, Errors: 0, Skipped: 0, Time elapsed: 0.657 sec - in englishhub.EnglishHubServer.UserDAOTest
