-------------------------------------------------------------------------------
Test set: englishhub.EnglishHubServer.NewsDAOTest
-------------------------------------------------------------------------------
Tests run: 4, Failures: 0, Errors: 0, Skipped: 0, Time elapsed: 12.589 sec - in englishhub.EnglishHubServer.NewsDAOTest
